\relax 
\@writefile{toc}{\contentsline {section}{\numberline {1}はじめに}{1}\protected@file@percent }
\@writefile{toc}{\contentsline {section}{\numberline {2}RNN}{1}\protected@file@percent }
\@writefile{toc}{\contentsline {subsection}{\numberline {2.1}モデル概要}{1}\protected@file@percent }
\@writefile{lof}{\contentsline {figure}{\numberline {1}{\ignorespaces 通常のニューラルネットワーク}}{2}\protected@file@percent }
\newlabel{NN}{{1}{2}}
\@writefile{lof}{\contentsline {figure}{\numberline {2}{\ignorespaces RNN}}{2}\protected@file@percent }
\newlabel{RNN}{{2}{2}}
\@writefile{toc}{\contentsline {subsection}{\numberline {2.2}BPTT(BackPropagationThroughtTime)}{2}\protected@file@percent }
\@writefile{lof}{\contentsline {figure}{\numberline {3}{\ignorespaces RNNの模式図}}{2}\protected@file@percent }
\newlabel{BPTT}{{3}{2}}
\newlabel{SSE}{{1}{2}}
\citation{lit:BPTT}
\@writefile{lot}{\contentsline {table}{\numberline {1}{\ignorespaces 式で使用する記号・関数の説明}}{3}\protected@file@percent }
\newlabel{tab:my-table}{{1}{3}}
\@writefile{toc}{\contentsline {subsection}{\numberline {2.3}誤差消滅問題}{4}\protected@file@percent }
\@writefile{lof}{\contentsline {figure}{\numberline {4}{\ignorespaces シンプルなRNN}}{4}\protected@file@percent }
\newlabel{SimpleRNN}{{4}{4}}
\citation{lit:original-LSTM}
\newlabel{error_problem}{{22}{5}}
\@writefile{toc}{\contentsline {section}{\numberline {3}LSTM}{5}\protected@file@percent }
\@writefile{toc}{\contentsline {subsection}{\numberline {3.1}モデル概要}{5}\protected@file@percent }
\@writefile{lof}{\contentsline {figure}{\numberline {5}{\ignorespaces LSTM}}{6}\protected@file@percent }
\newlabel{detail-LSTM}{{3.1}{6}}
\@writefile{lof}{\contentsline {figure}{\numberline {6}{\ignorespaces RNN}}{6}\protected@file@percent }
\newlabel{detail-RNN}{{6}{6}}
\@writefile{toc}{\contentsline {subsection}{\numberline {3.2}CEC(ConstantErrorCarousel)}{6}\protected@file@percent }
\citation{mogren2016c}
\citation{xingjian2015convolutional}
\bibstyle{jplain}
\bibdata{bibliography_us}
\bibcite{lit:BPTT}{1}
\@writefile{toc}{\contentsline {subsection}{\numberline {3.3}入力ゲート}{7}\protected@file@percent }
\@writefile{toc}{\contentsline {subsection}{\numberline {3.4}出力ゲート}{7}\protected@file@percent }
\@writefile{toc}{\contentsline {section}{\numberline {4}LSTMの発展形とその特徴}{7}\protected@file@percent }
\bibcite{lit:original-LSTM}{2}
\bibcite{mogren2016c}{3}
\bibcite{xingjian2015convolutional}{4}
